Processor Simulator/Control01/Control01.vcd
$date
  Thu Jun 04 11:31:11 2020
$end
$version
  GHDL v0
$end
$timescale
  1 fs
$end
$var reg 16 ! teclado[15:0] $end
$var reg 16 " display[15:0] $end
$var reg 2 # mmbr[1:0] $end
$var reg 1 $ incpc $end
$var reg 1 % lpc $end
$var reg 1 & lpar $end
$var reg 1 ' lir $end
$var reg 1 ( lpbr $end
$var reg 1 ) lmar $end
$var reg 1 * rw $end
$var reg 1 + bmbr $end
$var reg 1 , lmbr $end
$var reg 1 - lr1 $end
$var reg 1 . lr2 $end
$var reg 1 / lr3 $end
$var reg 1 0 lrf $end
$var reg 1 1 clk $end
$var reg 1 2 clock_on $end
$scope module uut $end
$var reg 16 3 teclado[15:0] $end
$var reg 16 4 display[15:0] $end
$var reg 2 5 mmbr[1:0] $end
$var reg 1 6 incpc $end
$var reg 1 7 lpc $end
$var reg 1 8 lpar $end
$var reg 1 9 lir $end
$var reg 1 : lpbr $end
$var reg 1 ; lmar $end
$var reg 1 < rw $end
$var reg 1 = bmbr $end
$var reg 1 > lmbr $end
$var reg 1 ? lr1 $end
$var reg 1 @ lr2 $end
$var reg 1 A lr3 $end
$var reg 1 B lrf $end
$var reg 1 C clk $end
$var reg 9 D salidapc[8:0] $end
$var reg 9 E entradarom[8:0] $end
$var reg 9 F salidamar[8:0] $end
$var reg 12 G salidair[11:0] $end
$var reg 12 H salidapbr[11:0] $end
$var reg 12 I salidarom[11:0] $end
$var reg 16 J scontrol[15:0] $end
$var reg 16 K concatenado[15:0] $end
$var reg 16 L salidaram[15:0] $end
$var reg 16 M salidaalu[15:0] $end
$var reg 16 N salidape[15:0] $end
$var reg 16 O salidaps[15:0] $end
$var reg 1 P iom $end
$var reg 3 Q srf[2:0] $end
$var reg 1 R comp $end
$scope module pc $end
$var reg 9 S entrada[8:0] $end
$var reg 9 T salida[8:0] $end
$var reg 1 U inc $end
$var reg 1 V l $end
$var reg 1 W clk $end
$upscope $end
$scope module par $end
$var reg 9 X entrada[8:0] $end
$var reg 9 Y salida[8:0] $end
$var reg 1 Z l $end
$var reg 1 [ clk $end
$upscope $end
$scope module ir $end
$var reg 12 \ entrada[11:0] $end
$var reg 12 ] salida[11:0] $end
$var reg 1 ^ l $end
$var reg 1 _ clk $end
$upscope $end
$scope module pbr $end
$var reg 12 ` entrada[11:0] $end
$var reg 12 a salida[11:0] $end
$var reg 1 b l $end
$var reg 1 c clk $end
$upscope $end
$scope module rom $end
$var reg 9 d a[8:0] $end
$var reg 12 e d[11:0] $end
$upscope $end
$scope module mar $end
$var reg 9 f entrada[8:0] $end
$var reg 9 g salida[8:0] $end
$var reg 1 h l $end
$var reg 1 i clk $end
$upscope $end
$scope module control $end
$var reg 12 j coop[11:0] $end
$var reg 16 k salida[15:0] $end
$var reg 1 l clk $end
$var reg 11 m posicionh[10:0] $end
$var reg 3 n temp_2[2:0] $end
$var integer 32 o posicion $end
$upscope $end
$scope module alu $end
$var reg 12 p coop[11:0] $end
$var reg 16 q sram[15:0] $end
$var reg 16 r spbr[15:0] $end
$var reg 16 s sp[15:0] $end
$var reg 16 t salida[15:0] $end
$var reg 2 u mmbr[1:0] $end
$var reg 1 v lmbr $end
$var reg 1 w lr1 $end
$var reg 1 x lr2 $end
$var reg 1 y lr3 $end
$var reg 1 z lrf $end
$var reg 1 { mbrm $end
$var reg 3 | srf[2:0] $end
$var reg 1 } clk $end
$var reg 16 !" salu[15:0] $end
$var reg 16 "" smm[15:0] $end
$var reg 16 #" smbr[15:0] $end
$var reg 16 $" sr1[15:0] $end
$var reg 16 %" sr2[15:0] $end
$var reg 16 &" sr3[15:0] $end
$var reg 16 '" sma[15:0] $end
$var reg 16 (" smb[15:0] $end
$var reg 3 )" sf[2:0] $end
$var reg 2 *" selectorma[1:0] $end
$scope module mm $end
$var reg 16 +" entrada1[15:0] $end
$var reg 16 ," entrada2[15:0] $end
$var reg 16 -" entrada3[15:0] $end
$var reg 16 ." entrada4[15:0] $end
$var reg 16 /" salida[15:0] $end
$var reg 2 0" selector[1:0] $end
$upscope $end
$scope module mbr $end
$var reg 16 1" entrada[15:0] $end
$var reg 16 2" salida[15:0] $end
$var reg 1 3" l $end
$var reg 1 4" clk $end
$upscope $end
$scope module r1 $end
$var reg 16 5" entrada[15:0] $end
$var reg 16 6" salida[15:0] $end
$var reg 1 7" l $end
$var reg 1 8" clk $end
$upscope $end
$scope module r2 $end
$var reg 16 9" entrada[15:0] $end
$var reg 16 :" salida[15:0] $end
$var reg 1 ;" l $end
$var reg 1 <" clk $end
$upscope $end
$scope module r3 $end
$var reg 16 =" entrada[15:0] $end
$var reg 16 >" salida[15:0] $end
$var reg 1 ?" l $end
$var reg 1 @" clk $end
$upscope $end
$scope module ma $end
$var reg 16 A" entrada1[15:0] $end
$var reg 16 B" entrada2[15:0] $end
$var reg 16 C" entrada3[15:0] $end
$var reg 16 D" entrada4[15:0] $end
$var reg 16 E" salida[15:0] $end
$var reg 2 F" selector[1:0] $end
$upscope $end
$scope module mb $end
$var reg 16 G" entrada1[15:0] $end
$var reg 16 H" entrada2[15:0] $end
$var reg 16 I" entrada3[15:0] $end
$var reg 16 J" entrada4[15:0] $end
$var reg 16 K" salida[15:0] $end
$var reg 2 L" selector[1:0] $end
$upscope $end
$scope module alu_2 $end
$var reg 4 M" op[3:0] $end
$var reg 16 N" a[15:0] $end
$var reg 16 O" b[15:0] $end
$var reg 16 P" r[15:0] $end
$var reg 3 Q" f[2:0] $end
$var reg 18 R" z[17:0] $end
$var reg 3 S" flag[2:0] $end
$upscope $end
$scope module rf $end
$var reg 3 T" entrada[2:0] $end
$var reg 3 U" salida[2:0] $end
$var reg 1 V" l $end
$var reg 1 W" clk $end
$upscope $end
$scope module bufer $end
$var reg 16 X" entrada[15:0] $end
$var reg 16 Y" salida[15:0] $end
$var reg 1 Z" control $end
$upscope $end
$upscope $end
$scope module ramon $end
$var reg 9 [" d[8:0] $end
$var reg 16 \" pin[15:0] $end
$var reg 16 ]" pout[15:0] $end
$var reg 1 ^" rw $end
$var reg 1 _" iom $end
$comment posicion is not handled $end
$var integer 32 `" linea $end
$upscope $end
$scope module entrada $end
$var reg 9 a" direccion[8:0] $end
$var reg 16 b" entrada[15:0] $end
$var reg 16 c" datos[15:0] $end
$var reg 1 d" iom $end
$var reg 1 e" wr $end
$var reg 1 f" clk $end
$upscope $end
$scope module salida $end
$var reg 9 g" direccion[8:0] $end
$var reg 16 h" datos[15:0] $end
$var reg 16 i" salida[15:0] $end
$var reg 1 j" iom $end
$var reg 1 k" wr $end
$var reg 1 l" clk $end
$upscope $end
$upscope $end
$enddefinitions $end
#0
b0000000001010101 !
b0000000000000000 "
b00 #
0$
0%
1&
0'
0(
0)
0*
0+
0,
0-
0.
0/
00
01
12
b0000000001010101 3
b0000000000000000 4
b00 5
06
07
18
09
0:
0;
0<
0=
0>
0?
0@
0A
0B
0C
b000000000 D
b000000000 E
b000000000 F
b000000000000 G
b000000000000 H
b110000010000 I
b0100000000000000 J
b0000000000000000 K
b0000000000000000 L
bZZZZZZZZZZZZZZZZ M
bUUUUUUUUUUUUUUUU N
b0000000000000000 O
0P
b000 Q
0R
b000000000 S
b000000000 T
0U
0V
0W
b000000000 X
b000000000 Y
1Z
0[
b000000000000 \
b000000000000 ]
0^
0_
b110000010000 `
b000000000000 a
0b
0c
b000000000 d
b110000010000 e
b000010000 f
b000000000 g
0h
0i
b000000000000 j
b0100000000000000 k
0l
b00000000000 m
b000 n
b0 o
b000000000000 p
b0000000000000000 q
b0000000000000000 r
bUUUUUUUUUUUUUUUU s
bZZZZZZZZZZZZZZZZ t
b00 u
0v
0w
0x
0y
0z
0{
b000 |
0}
bUUUUUUUUUUUUUUUU !"
b0000000000000000 ""
b0000000000000000 #"
b0000000000000000 $"
b0000000000000000 %"
b0000000000000000 &"
b0000000000000000 '"
b0000000000000000 ("
b001 )"
b00 *"
b0000000000000000 +"
b0000000000000000 ,"
bUUUUUUUUUUUUUUUU -"
bUUUUUUUUUUUUUUUU ."
b0000000000000000 /"
b00 0"
b0000000000000000 1"
b0000000000000000 2"
03"
04"
bUUUUUUUUUUUUUUUU 5"
b0000000000000000 6"
07"
08"
bUUUUUUUUUUUUUUUU 9"
b0000000000000000 :"
0;"
0<"
bUUUUUUUUUUUUUUUU ="
b0000000000000000 >"
0?"
0@"
b0000000000000000 A"
b0000000000000000 B"
b0000000000000000 C"
b0000000000000000 D"
b0000000000000000 E"
b00 F"
b0000000000000000 G"
b0000000000000000 H"
b0000000000000000 I"
b0000000000000000 J"
b0000000000000000 K"
b00 L"
b0000 M"
b0000000000000000 N"
b0000000000000000 O"
bUUUUUUUUUUUUUUUU P"
b001 Q"
bUUUUUUUUUUUUUUUUUU R"
b001 S"
b001 T"
b000 U"
0V"
0W"
b0000000000000000 X"
bZZZZZZZZZZZZZZZZ Y"
0Z"
b000000000 ["
bZZZZZZZZZZZZZZZZ \"
b0000000000000000 ]"
0^"
0_"
b0 `"
b000000000 a"
b0000000001010101 b"
bUUUUUUUUUUUUUUUU c"
0d"
0e"
0f"
b000000000 g"
bZZZZZZZZZZZZZZZZ h"
b0000000000000000 i"
0j"
0k"
0l"
#25000000
1$
0&
1(
11
16
08
1:
1C
b0010100000000000 J
1U
1W
0Z
1[
1_
1b
1c
1i
b0010100000000000 k
1l
b00000000001 m
b001 n
b1 o
1}
14"
18"
1<"
1@"
1W"
1f"
1l"
#50000000
01
0C
0W
0[
0_
0c
0i
0l
0}
04"
08"
0<"
0@"
0W"
0f"
0l"
#75000000
0$
1'
0(
11
06
19
0:
1C
b110000010000 H
b0000010000000000 J
b0000110000010000 K
b000010000 S
0U
1W
1[
b110000010000 \
1^
1_
b110000010000 a
0b
1c
1i
b0000010000000000 k
1l
b00000000010 m
b010 n
b10 o
b0000110000010000 r
1}
b0000110000010000 ,"
14"
18"
1<"
1@"
1W"
1f"
1l"
#100000000
01
0C
b000000001 D
b000000001 T
0W
b000000001 X
0[
0_
0c
0i
0l
0}
04"
08"
0<"
0@"
0W"
0f"
0l"
#125000000
1&
0'
11
18
09
1C
b110000010000 G
b0100000000000000 J
1P
1W
1Z
1[
b110000010000 ]
0^
1_
1c
1i
b110000010000 j
b0100000000000000 k
1l
b11000001011 m
b011 n
b11000001011 o
b110000010000 p
1}
b0000000000000000 !"
b010 )"
b0000000000000000 -"
14"
b0000000000000000 5"
18"
b0000000000000000 9"
1<"
b0000000000000000 ="
1@"
b1100 M"
b0000000000000000 P"
b010 Q"
b000000000000000000 R"
b010 S"
b010 T"
1W"
1_"
1d"
1f"
1j"
1l"
#150000000
01
0C
b0000000001010101 N
0W
0[
0_
0c
0i
0l
b0000000001010101 s
0}
b0000000001010101 ."
04"
08"
0<"
0@"
0W"
b0000000001010101 c"
0f"
0l"
#175000000
1$
0&
1)
11
16
08
1;
1C
b000000001 E
b000000000000 I
b0010001000000000 J
1U
1W
b000000001 Y
0Z
1[
1_
b000000000000 `
1c
b000000001 d
b000000000000 e
b000000000 f
1h
1i
b0010001000000000 k
1l
b11000001100 m
b100 n
b11000001100 o
1}
14"
18"
1<"
1@"
1W"
1f"
1l"
#200000000
01
0C
0W
0[
0_
0c
0i
0l
0}
04"
08"
0<"
0@"
0W"
0f"
0l"
#225000000
b11 #
0$
0)
1,
11
b11 5
06
0;
1>
1C
b0000000001110000 J
0U
1W
1[
1_
1c
0h
1i
b0000000001110000 k
1l
b11000001101 m
b101 n
b11000001101 o
b11 u
1v
1}
b0000000001010101 ""
b0000000001010101 /"
b11 0"
b0000000001010101 1"
13"
14"
18"
1<"
1@"
1W"
1f"
1l"
#250000000
01
0C
b000000010 D
b000000010 T
0W
b000000010 X
0[
0_
0c
0i
0l
0}
04"
08"
0<"
0@"
0W"
0f"
0l"
#275000000
b00 #
0,
1-
11
b00 5
0>
1?
1C
b0000000000001000 J
1W
1[
1_
1c
1i
b0000000000001000 k
1l
b11000001110 m
b110 n
b11000001110 o
b00 u
0v
1w
1}
b0000000001010101 !"
b0000000000000000 ""
b0000000001010101 #"
b0000000001010101 '"
b0000000001010101 ("
b001 )"
b0000000001010101 -"
b0000000000000000 /"
b00 0"
b0000000000000000 1"
b0000000001010101 2"
03"
14"
b0000000001010101 5"
17"
18"
b0000000001010101 9"
1<"
b0000000001010101 ="
1@"
b0000000001010101 A"
b0000000001010101 E"
b0000000001010101 G"
b0000000001010101 K"
b0000000001010101 N"
b0000000001010101 O"
b0000000001010101 P"
b001 Q"
b000000000001010101 R"
b001 S"
b001 T"
1W"
b0000000001010101 X"
1f"
1l"
#300000000
01
0C
0W
0[
0_
0c
0i
0l
0}
04"
08"
0<"
0@"
0W"
0f"
0l"
#325000000
0-
11
0?
1C
b0000000000000000 J
1W
1[
1_
1c
1i
b0000000000000000 k
1l
b11000001111 m
b111 n
b11000001111 o
0w
1}
b0000000001010101 $"
14"
b0000000001010101 6"
07"
18"
1<"
1@"
b0000000001010101 B"
b0000000001010101 H"
1W"
1f"
1l"
#350000000
01
0C
0W
0[
0_
0c
0i
0l
0}
04"
08"
0<"
0@"
0W"
0f"
0l"
#375000000
1&
11
18
1C
b0100000000000000 J
1W
1Z
1[
1_
1c
1i
b0100000000000000 k
1l
b11000001000 m
b000 n
b11000001000 o
1}
14"
18"
1<"
1@"
1W"
1f"
1l"
#400000000
01
0C
0W
0[
0_
0c
0i
0l
0}
04"
08"
0<"
0@"
0W"
0f"
0l"
#425000000
1$
0&
1(
11
16
08
1:
1C
b000000010 E
b101100000100 I
b0010100000000000 J
1U
1W
b000000010 Y
0Z
1[
1_
b101100000100 `
1b
1c
b000000010 d
b101100000100 e
b100000100 f
1i
b0010100000000000 k
1l
b11000001001 m
b001 n
b11000001001 o
1}
14"
18"
1<"
1@"
1W"
1f"
1l"
#450000000
01
0C
0W
0[
0_
0c
0i
0l
0}
04"
08"
0<"
0@"
0W"
0f"
0l"
#475000000
0$
1'
0(
11
06
19
0:
1C
b101100000100 H
b0000010000000000 J
b0000101100000100 K
b100000100 S
0U
1W
1[
b101100000100 \
1^
1_
b101100000100 a
0b
1c
1i
b0000010000000000 k
1l
b11000001010 m
b010 n
b11000001010 o
b0000101100000100 r
1}
b0000101100000100 ,"
14"
18"
1<"
1@"
1W"
1f"
1l"
#500000000
01
0C
b000000011 D
b000000011 T
0W
b000000011 X
0[
0_
0c
0i
0l
0}
04"
08"
0<"
0@"
0W"
0f"
0l"
#525000000
1&
0'
11
18
09
1C
b101100000100 G
b0100000000000000 J
b0100101100000100 K
0P
1W
1Z
1[
b101100000100 ]
0^
1_
1c
1i
b101100000100 j
b0100000000000000 k
1l
b10110000011 m
b011 n
b10110000011 o
b101100000100 p
b0100101100000100 r
1}
b0100101100000100 ,"
14"
18"
1<"
1@"
b01 L"
b1011 M"
1W"
0_"
0d"
1f"
0j"
1l"
#550000000
01
0C
0W
0[
0_
0c
0i
0l
0}
04"
08"
0<"
0@"
0W"
0f"
0l"
#575000000
1$
0&
1)
11
16
08
1;
1C
b000000011 E
b000000010000 I
b0010001000000000 J
1U
1W
b000000011 Y
0Z
1[
1_
b000000010000 `
1c
b000000011 d
b000000010000 e
b000010000 f
1h
1i
b0010001000000000 k
1l
b10110000100 m
b100 n
b10110000100 o
1}
14"
18"
1<"
1@"
1W"
1f"
1l"
#600000000
01
0C
0W
0[
0_
0c
0i
0l
0}
04"
08"
0<"
0@"
0W"
0f"
0l"
#625000000
0$
0)
1,
11
06
0;
1>
1C
b000010000 F
b0000000000010000 J
0U
1W
1[
1_
1c
b000010000 g
0h
1i
b0000000000010000 k
1l
b10110000101 m
b101 n
b10110000101 o
1v
1}
13"
14"
18"
1<"
1@"
1W"
b000010000 ["
b10000 `"
b000010000 a"
1f"
b000010000 g"
1l"
#650000000
01
0C
b000000100 D
b000000100 T
0W
b000000100 X
0[
0_
0c
0i
0l
0}
04"
08"
0<"
0@"
0W"
0f"
0l"
#675000000
b10 #
11
b10 5
1C
b0000000001010000 J
1W
1[
1_
1c
1i
b0000000001010000 k
1l
b10110000110 m
b110 n
b10110000110 o
b10 u
1}
b0000000001010101 ""
b0000000000000000 #"
b0000000000000000 '"
b0000000001010101 /"
b10 0"
b0000000001010101 1"
b0000000000000000 2"
14"
18"
1<"
1@"
b0000000000000000 A"
b0000000000000000 E"
b0000000000000000 G"
b0000000000000000 N"
1W"
b0000000000000000 X"
1f"
1l"
#700000000
01
0C
0W
0[
0_
0c
0i
0l
0}
04"
08"
0<"
0@"
0W"
0f"
0l"
#725000000
b00 #
1*
1+
0,
11
b00 5
1<
1=
0>
1C
b0000000110000000 J
b0000000001010101 M
1W
1[
1_
1c
1i
b0000000110000000 k
1l
b10110000111 m
b111 n
b10110000111 o
b0000000001010101 t
b00 u
0v
1{
1}
b0000000000000000 ""
b0000000001010101 #"
b0000000001010101 '"
b0000000000000000 /"
b00 0"
b0000000000000000 1"
b0000000001010101 2"
03"
14"
18"
1<"
1@"
b0000000001010101 A"
b0000000001010101 E"
b0000000001010101 G"
b0000000001010101 N"
1W"
b0000000001010101 X"
b0000000001010101 Y"
1Z"
b0000000001010101 \"
1^"
1e"
1f"
b0000000001010101 h"
1k"
1l"
#750000000
01
0C
0W
0[
0_
0c
0i
0l
0}
04"
08"
0<"
0@"
0W"
0f"
0l"
#775000000
1&
0*
0+
11
18
0<
0=
1C
b0100000000000000 J
b0000000001010101 L
bZZZZZZZZZZZZZZZZ M
1W
1Z
1[
1_
1c
1i
b0100000000000000 k
1l
b10110000000 m
b000 n
b10110000000 o
b0000000001010101 q
bZZZZZZZZZZZZZZZZ t
0{
1}
b0000000001010101 ""
b0000000001010101 +"
b0000000001010101 /"
b0000000001010101 1"
14"
18"
1<"
1@"
1W"
bZZZZZZZZZZZZZZZZ Y"
0Z"
bZZZZZZZZZZZZZZZZ \"
b0000000001010101 ]"
0^"
0e"
1f"
bZZZZZZZZZZZZZZZZ h"
0k"
1l"
#800000000
01
0C
0W
0[
0_
0c
0i
0l
0}
04"
08"
0<"
0@"
0W"
0f"
0l"
#825000000
1$
0&
1(
11
16
08
1:
1C
b000000100 E
b000111010000 I
b0010100000000000 J
1U
1W
b000000100 Y
0Z
1[
1_
b000111010000 `
1b
1c
b000000100 d
b000111010000 e
b111010000 f
1i
b0010100000000000 k
1l
b10110000001 m
b001 n
b10110000001 o
1}
14"
18"
1<"
1@"
1W"
1f"
1l"
#850000000
01
0C
0W
0[
0_
0c
0i
0l
0}
04"
08"
0<"
0@"
0W"
0f"
0l"
#875000000
0$
1'
0(
11
06
19
0:
1C
b000111010000 H
b0000010000000000 J
b0100000111010000 K
b111010000 S
0U
1W
1[
b000111010000 \
1^
1_
b000111010000 a
0b
1c
1i
b0000010000000000 k
1l
b10110000010 m
b010 n
b10110000010 o
b0100000111010000 r
1}
b0100000111010000 ,"
14"
18"
1<"
1@"
1W"
1f"
1l"
#900000000
01
0C
b000000101 D
b000000101 T
0W
b000000101 X
0[
0_
0c
0i
0l
0}
04"
08"
0<"
0@"
0W"
0f"
0l"
#925000000
1&
0'
11
18
09
1C
b000111010000 G
b0100000000000000 J
b0000000111010000 K
1W
1Z
1[
b000111010000 ]
0^
1_
1c
1i
b000111010000 j
b0100000000000000 k
1l
b00011101011 m
b011 n
b11101011 o
b000111010000 p
b0000000111010000 r
1}
b0000000010101010 !"
b01 *"
b0000000111010000 ,"
b0000000010101010 -"
14"
b0000000010101010 5"
18"
b0000000010101010 9"
1<"
b0000000010101010 ="
1@"
b01 F"
b00 L"
b0001 M"
b0000000010101010 P"
b000000000010101010 R"
1W"
1f"
1l"
#950000000
01
0C
0W
0[
0_
0c
0i
0l
0}
04"
08"
0<"
0@"
0W"
0f"
0l"
#975000000
1$
0&
1(
11
16
08
1:
1C
b000000101 E
b000000101000 I
b0010100000000000 J
1U
1W
b000000101 Y
0Z
1[
1_
b000000101000 `
1b
1c
b000000101 d
b000000101000 e
b000101000 f
1i
b0010100000000000 k
1l
b00011101100 m
b100 n
b11101100 o
1}
14"
18"
1<"
1@"
1W"
1f"
1l"
#1000000000
01
0C
0W
0[
0_
0c
0i
0l
0}
04"
08"
0<"
0@"
0W"
0f"
0l"
#1025000000
b01 #
0$
0(
1,
11
b01 5
06
0:
1>
1C
b000000101000 H
b0000000000110000 J
b0000000000101000 K
b000101000 S
0U
1W
1[
b000000101000 \
1_
b000000101000 a
0b
1c
1i
b0000000000110000 k
1l
b00011101101 m
b101 n
b11101101 o
b0000000000101000 r
b01 u
1v
1}
b0000000000101000 ""
b0000000000101000 ,"
b0000000000101000 /"
b01 0"
b0000000000101000 1"
13"
14"
18"
1<"
1@"
1W"
1f"
1l"
#1050000000
01
0C
b000000110 D
b000000110 T
0W
b000000110 X
0[
0_
0c
0i
0l
0}
04"
08"
0<"
0@"
0W"
0f"
0l"
#1075000000
b00 #
0,
1-
10
11
b00 5
0>
1?
1B
1C
b0000000000001001 J
1W
1[
1_
1c
1i
b0000000000001001 k
1l
b00011101110 m
b110 n
b11101110 o
b00 u
0v
1w
1z
1}
b0000000001111101 !"
b0000000001010101 ""
b0000000000101000 #"
b0000000000101000 ("
b0000000001111101 -"
b0000000001010101 /"
b00 0"
b0000000001010101 1"
b0000000000101000 2"
03"
14"
b0000000001111101 5"
17"
18"
b0000000001111101 9"
1<"
b0000000001111101 ="
1@"
b0000000000101000 A"
b0000000000101000 G"
b0000000000101000 K"
b0000000000101000 O"
b0000000001111101 P"
b000000000001111101 R"
1V"
1W"
b0000000000101000 X"
1f"
1l"
#1100000000
01
0C
0W
0[
0_
0c
0i
0l
0}
04"
08"
0<"
0@"
0W"
0f"
0l"
#1125000000
0-
00
11
0?
0B
1C
b0000000000000000 J
b001 Q
1W
1[
1_
1c
1i
b0000000000000000 k
1l
b00011101111 m
b111 n
b11101111 o
0w
0z
b001 |
1}
b0000000010100101 !"
b0000000001111101 $"
b0000000001111101 '"
b0000000010100101 -"
14"
b0000000010100101 5"
b0000000001111101 6"
07"
18"
b0000000010100101 9"
1<"
b0000000010100101 ="
1@"
b0000000001111101 B"
b0000000001111101 E"
b0000000001111101 H"
b0000000001111101 N"
b0000000010100101 P"
b000000000010100101 R"
b001 U"
0V"
1W"
1f"
1l"
#1150000000
01
0C
0W
0[
0_
0c
0i
0l
0}
04"
08"
0<"
0@"
0W"
0f"
0l"
#1175000000
1&
11
18
1C
b0100000000000000 J
1W
1Z
1[
1_
1c
1i
b0100000000000000 k
1l
b00011101000 m
b000 n
b11101000 o
1}
14"
18"
1<"
1@"
1W"
1f"
1l"
#1200000000
01
0C
0W
0[
0_
0c
0i
0l
0}
04"
08"
0<"
0@"
0W"
0f"
0l"
#1225000000
1$
0&
1(
11
16
08
1:
1C
b000000110 E
b101110100000 I
b0010100000000000 J
1U
1W
b000000110 Y
0Z
1[
1_
b101110100000 `
1b
1c
b000000110 d
b101110100000 e
b110100000 f
1i
b0010100000000000 k
1l
b00011101001 m
b001 n
b11101001 o
1}
14"
18"
1<"
1@"
1W"
1f"
1l"
#1250000000
01
0C
0W
0[
0_
0c
0i
0l
0}
04"
08"
0<"
0@"
0W"
0f"
0l"
#1275000000
0$
1'
0(
11
06
19
0:
1C
b101110100000 H
b0000010000000000 J
b0000101110100000 K
b110100000 S
0U
1W
1[
b101110100000 \
1^
1_
b101110100000 a
0b
1c
1i
b0000010000000000 k
1l
b00011101010 m
b010 n
b11101010 o
b0000101110100000 r
1}
b0000101110100000 ,"
14"
18"
1<"
1@"
1W"
1f"
1l"
#1300000000
01
0C
b000000111 D
b000000111 T
0W
b000000111 X
0[
0_
0c
0i
0l
0}
04"
08"
0<"
0@"
0W"
0f"
0l"
#1325000000
1&
0'
11
18
09
1C
b101110100000 G
b0100000000000000 J
1R
1W
1Z
1[
b101110100000 ]
0^
1_
1c
1i
b101110100000 j
b0100000000000000 k
1l
b10111010011 m
b011 n
b10111010011 o
b101110100000 p
1}
b0000000000101000 !"
b0000000000000000 '"
b10 *"
b0000000000101000 -"
14"
b0000000000101000 5"
18"
b0000000000101000 9"
1<"
b0000000000101000 ="
1@"
b0000000000000000 E"
b10 F"
b1011 M"
b0000000000000000 N"
b0000000000101000 P"
b000000000000101000 R"
1W"
1f"
1l"
#1350000000
01
0C
0W
0[
0_
0c
0i
0l
0}
04"
08"
0<"
0@"
0W"
0f"
0l"
#1375000000
1$
0&
1)
11
16
08
1;
1C
b000000111 E
b000000010000 I
b0010001000000000 J
1U
1W
b000000111 Y
0Z
1[
1_
b000000010000 `
1c
b000000111 d
b000000010000 e
b000010000 f
1h
1i
b0010001000000000 k
1l
b10111010100 m
b100 n
b10111010100 o
1}
14"
18"
1<"
1@"
1W"
1f"
1l"
#1400000000
01
0C
0W
0[
0_
0c
0i
0l
0}
04"
08"
0<"
0@"
0W"
0f"
0l"
#1425000000
0$
0)
1,
11
06
0;
1>
1C
b0000000000010000 J
0U
1W
1[
1_
1c
0h
1i
b0000000000010000 k
1l
b10111010101 m
b101 n
b10111010101 o
1v
1}
13"
14"
18"
1<"
1@"
1W"
1f"
1l"
#1450000000
01
0C
b000001000 D
b000001000 T
0W
b000001000 X
0[
0_
0c
0i
0l
0}
04"
08"
0<"
0@"
0W"
0f"
0l"
#1475000000
0,
1.
11
0>
1@
1C
b0000000000000100 J
1W
1[
1_
1c
1i
b0000000000000100 k
1l
b10111010110 m
b110 n
b10111010110 o
0v
1x
1}
b0000000001010101 !"
b0000000001010101 #"
b0000000001010101 ("
b0000000001010101 -"
b0000000001010101 2"
03"
14"
b0000000001010101 5"
18"
b0000000001010101 9"
1;"
1<"
b0000000001010101 ="
1@"
b0000000001010101 A"
b0000000001010101 G"
b0000000001010101 K"
b0000000001010101 O"
b0000000001010101 P"
b000000000001010101 R"
1W"
b0000000001010101 X"
1f"
1l"
#1500000000
01
0C
0W
0[
0_
0c
0i
0l
0}
04"
08"
0<"
0@"
0W"
0f"
0l"
#1525000000
0.
11
0@
1C
b0000000000000000 J
1W
1[
1_
1c
1i
b0000000000000000 k
1l
b10111010111 m
b111 n
b10111010111 o
0x
1}
b0000000001010101 %"
b0000000001010101 '"
14"
18"
b0000000001010101 :"
0;"
1<"
1@"
b0000000001010101 C"
b0000000001010101 E"
b0000000001010101 I"
b0000000001010101 N"
1W"
1f"
1l"
#1550000000
01
0C
0W
0[
0_
0c
0i
0l
0}
04"
08"
0<"
0@"
0W"
0f"
0l"
#1575000000
1&
11
18
1C
b0100000000000000 J
1W
1Z
1[
1_
1c
1i
b0100000000000000 k
1l
b10111010000 m
b000 n
b10111010000 o
1}
14"
18"
1<"
1@"
1W"
1f"
1l"
#1600000000
01
0C
0W
0[
0_
0c
0i
0l
0}
04"
08"
0<"
0@"
0W"
0f"
0l"
#1625000000
1$
0&
1(
11
16
08
1:
1C
b000001000 E
b001001011000 I
b0010100000000000 J
1U
1W
b000001000 Y
0Z
1[
1_
b001001011000 `
1b
1c
b000001000 d
b001001011000 e
b001011000 f
1i
b0010100000000000 k
1l
b10111010001 m
b001 n
b10111010001 o
1}
14"
18"
1<"
1@"
1W"
1f"
1l"
#1650000000
01
0C
0W
0[
0_
0c
0i
0l
0}
04"
08"
0<"
0@"
0W"
0f"
0l"
#1675000000
0$
1'
0(
11
06
19
0:
1C
b001001011000 H
b0000010000000000 J
b0000001001011000 K
b001011000 S
0U
1W
1[
b001001011000 \
1^
1_
b001001011000 a
0b
1c
1i
b0000010000000000 k
1l
b10111010010 m
b010 n
b10111010010 o
b0000001001011000 r
1}
b0000001001011000 ,"
14"
18"
1<"
1@"
1W"
1f"
1l"
#1700000000
01
0C
b000001001 D
b000001001 T
0W
b000001001 X
0[
0_
0c
0i
0l
0}
04"
08"
0<"
0@"
0W"
0f"
0l"
#1725000000
0'
1-
10
11
09
1?
1B
1C
b001001011000 G
b0000000000001001 J
b1000001001011000 K
0R
1W
1[
b001001011000 ]
0^
1_
1c
1i
b001001011000 j
b0000000000001001 k
1l
b00100101011 m
b011 n
b100101011 o
b001001011000 p
b1000001001011000 r
1w
1z
1}
b0000000000101000 !"
b0000000001111101 '"
b001 )"
b01 *"
b1000001001011000 ,"
b0000000000101000 -"
14"
b0000000000101000 5"
17"
18"
b0000000000101000 9"
1<"
b0000000000101000 ="
1@"
b0000000001111101 E"
b01 F"
b10 L"
b0010 M"
b0000000001111101 N"
b0000000000101000 P"
b001 Q"
b000000000000101000 R"
b001 S"
b001 T"
1V"
1W"
1f"
1l"
#1750000000
01
0C
0W
0[
0_
0c
0i
0l
0}
04"
08"
0<"
0@"
0W"
0f"
0l"
#1775000000
0-
00
11
0?
0B
1C
b0000000000000000 J
1W
1[
1_
1c
1i
b0000000000000000 k
1l
b00100101100 m
b100 n
b100101100 o
0w
0z
1}
b1111111111010011 !"
b0000000000101000 $"
b0000000000101000 '"
b100 )"
b1111111111010011 -"
14"
b1111111111010011 5"
b0000000000101000 6"
07"
18"
b1111111111010011 9"
1<"
b1111111111010011 ="
1@"
b0000000000101000 B"
b0000000000101000 E"
b0000000000101000 H"
b0000000000101000 N"
b1111111111010011 P"
b100 Q"
b111111111111010011 R"
b100 S"
b100 T"
0V"
1W"
1f"
1l"
#1800000000
01
0C
0W
0[
0_
0c
0i
0l
0}
04"
08"
0<"
0@"
0W"
0f"
0l"
#1825000000
11
1C
1W
1[
1_
1c
1i
1l
b00100101101 m
b101 n
b100101101 o
1}
14"
18"
1<"
1@"
1W"
1f"
1l"
#1850000000
01
0C
0W
0[
0_
0c
0i
0l
0}
04"
08"
0<"
0@"
0W"
0f"
0l"
#1875000000
11
1C
1W
1[
1_
1c
1i
1l
b00100101110 m
b110 n
b100101110 o
1}
14"
18"
1<"
1@"
1W"
1f"
1l"
