Processor Simulator/MemoriadeControl/MemoriadeControl.vcd
$date
  Thu Jun 04 02:10:44 2020
$end
$version
  GHDL v0
$end
$timescale
  1 fs
$end
$var reg 12 ! coop[11:0] $end
$var reg 16 " salida[15:0] $end
$var reg 1 # clk $end
$var reg 1 $ clock_on $end
$scope module uut $end
$var reg 12 % coop[11:0] $end
$var reg 16 & salida[15:0] $end
$var reg 1 ' clk $end
$var reg 11 ( posicionh[10:0] $end
$var reg 3 ) temp_2[2:0] $end
$var integer 32 * posicion $end
$upscope $end
$enddefinitions $end
#0
b101110010000 !
b0100000000000000 "
0#
1$
b101110010000 %
b0100000000000000 &
0'
b10111001000 (
b000 )
b10111001000 *
#25000000
b0010100000000000 "
1#
b0010100000000000 &
1'
b10111001001 (
b001 )
b10111001001 *
#50000000
0#
0'
#75000000
b0000010000000000 "
1#
b0000010000000000 &
1'
b10111001010 (
b010 )
b10111001010 *
#100000000
0#
0'
#125000000
b0100000000000000 "
1#
b0100000000000000 &
1'
b10111001011 (
b011 )
b10111001011 *
#150000000
0#
0'
#175000000
b0010001000000000 "
1#
b0010001000000000 &
1'
b10111001100 (
b100 )
b10111001100 *
#200000000
0#
0'
#225000000
b0000000000010000 "
1#
b0000000000010000 &
1'
b10111001101 (
b101 )
b10111001101 *
#250000000
0#
0'
#275000000
b0000000000001000 "
1#
b0000000000001000 &
1'
b10111001110 (
b110 )
b10111001110 *
#300000000
0#
0'
#325000000
b0000000000000000 "
1#
b0000000000000000 &
1'
b10111001111 (
b111 )
b10111001111 *
#350000000
0#
0'
#375000000
b0100000000000000 "
1#
b0100000000000000 &
1'
b10111001000 (
b000 )
b10111001000 *
#400000000
0#
0'
#425000000
b0010100000000000 "
1#
b0010100000000000 &
1'
b10111001001 (
b001 )
b10111001001 *
#450000000
0#
0'
#475000000
b0000010000000000 "
1#
b0000010000000000 &
1'
b10111001010 (
b010 )
b10111001010 *
#500000000
0#
0$
0'
#525000000
b0100000000000000 "
1#
b0100000000000000 &
1'
b10111001011 (
b011 )
b10111001011 *
